%YAML 1.1
%TAG !u! tag:unity3d.com,2011:
--- !u!21 &2100000
Material:
  serializedVersion: 3
  m_ObjectHideFlags: 0
  m_PrefabParentObject: {fileID: 0}
  m_PrefabInternal: {fileID: 0}
  m_Name: CFXM2_WWSmoke ABAdd
  m_Shader: {fileID: 10721, guid: 0000000000000000f000000000000000, type: 0}
  m_SavedProperties:
    serializedVersion: 2
    m_TexEnvs:
      data:
        first:
          name: _MainTex
        second:
          m_Texture: {fileID: 2800000, guid: 5bce40e23cd49bc48a15943db0184188, type: 1}
          m_Scale: {x: 1, y: 1}
          m_Offset: {x: 0, y: 0}
      data:
        first:
          name: _Mask
        second:
          m_Texture: {fileID: 2800000, guid: 1830bcc6a8e2d4548937f7b8f62b7d2a, type: 1}
          m_Scale: {x: 1, y: 1}
          m_Offset: {x: 0, y: 0}
      data:
        first:
          name: _WiggleTex
        second:
          m_Texture: {fileID: 0}
          m_Scale: {x: 1, y: 1}
          m_Offset: {x: 0, y: 0}
    m_Floats:
      data:
        first:
          name: _Shininess
        second: .699999988
      data:
        first:
          name: _InvFade
        second: 1
      data:
        first:
          name: _WiggleStrength
        second: .00999999978
      data:
        first:
          name: _TexCoordScrollX
        second: 24
      data:
        first:
          name: _TexCoordScrollY
        second: 0
      data:
        first:
          name: _FramesX
        second: 3
      data:
        first:
          name: _FramesY
        second: 3
      data:
        first:
          name: _CurFrame
        second: 4
      data:
        first:
          name: _Frames
        second: 2
      data:
        first:
          name: _Speed
        second: 300
    m_Colors:
      data:
        first:
          name: _Color
        second: {r: 1, g: 1, b: 1, a: 1}
      data:
        first:
          name: _SpecColor
        second: {r: 1, g: 1, b: 1, a: 1}
      data:
        first:
          name: _TintColor
        second: {r: .501960814, g: .501960814, b: .501960814, a: .501960814}
      data:
        first:
          name: _Emission
        second: {r: 0, g: 0, b: 0, a: 0}
